{
    "event": "Altairian Strike",
    "occurence": "every Tuesday",
    "banner": "https://gamepedia.cursecdn.com/vegaconflict_gamepedia_en/4/48/AltairianStrike-Banner.png",
    "info": "Altairian Strike is a catch-up event for players to collect any essential missing Altairian technology that they have missed. It is the successor of Altairian Rising.",
    "tips": "",
    "wiki-link": "https://vegaconflict.gamepedia.com/Altairian_Strike",
    
    "SOURCE-LICENSE": "Information provided by https://vegaconflict.gamepedia.com/ under a Creative Commons Attribution-ShareAlike 3.0 Unported license",
    "LICENSE": "Provided under a Mozilla Public License Version 2.0",
    "_comment": "a removal of these licenses is strictly prohibited and would be a violation of the licensing agreement"
}